My dissertation
…
bad_trial_counts <- missing_data_by_trial %>% 
  count(Study, ResearchID, Basename, BadTrial) %>% 
  tidyr::spread(BadTrial, n) %>% 
  rename(n_bad = `TRUE`, n_good = `FALSE`) %>% 
  # Replace NAs with 0, in case there were 0 good trials in a block or 
  # 0 bad trials in a block
  mutate(n_bad = coalesce(n_bad, 0L),
         n_good = coalesce(n_good, 0L),
         trials = n_good + n_bad,
         prop_bad = round(n_bad / trials, 2)) 

blocks_to_drop <- bad_trial_counts %>% 
  filter(.5 <= prop_bad)
blocks_to_drop
#> # A tibble: 110 x 7
#>         Study ResearchID             Basename n_good n_bad trials prop_bad
#>         <chr>      <chr>                <chr>  <int> <int>  <int>    <dbl>
#>  1 TimePoint1       013L RWL_Block2_013L32MA1     11    13     24     0.54
#>  2 TimePoint1       023L RWL_Block1_023L29MA1     10    14     24     0.58
#>  3 TimePoint1       027L RWL_Block2_027L38MS2      6    18     24     0.75
#>  4 TimePoint1       033L RWL_Block1_033L35FS2      2    22     24     0.92
#>  5 TimePoint1       033L RWL_Block2_033L35FS2      2    22     24     0.92
#>  6 TimePoint1       035L RWL_Block1_035L32FA1      8    16     24     0.67
#>  7 TimePoint1       079L RWL_Block1_079L37FS2     10    14     24     0.58
#>  8 TimePoint1       109L RWL_Block1_109L34MS2      8    16     24     0.67
#>  9 TimePoint1       114L RWL_Block1_114L30MS1      7    17     24     0.71
#> 10 TimePoint1       114L RWL_Block2_114L30MS1      9    15     24     0.62
#> # ... with 100 more rows
…
